{
  "content": [{
    "id": 1,
    "incidentDate": "03/27/2021",
    "incidentLocation": "Shouxihu",
    "eventType": "visa",
    "harmOrPotentialHarm": true
  }],
  "pageable": {
    "sort": {
      "empty": true,
      "sorted": false,
      "unsorted": true
    },
    "offset": 0,
    "pageNumber": 0,
    "pageSize": 1,
    "paged": true,
    "unpaged": false
  },
  "totalPages": 50,
  "totalElements": 50,
  "last": false,
  "size": 1,
  "number": 0,
  "sort": {
    "empty": true,
    "sorted": false,
    "unsorted": true
  },
  "numberOfElements": 1,
  "first": true,
  "empty": false
}