{
  "content": [{
    "id": 1,
    "incidentDate": "03/27/2021",
    "incidentTime": "04:22",
    "incidentLocation": "Shouxihu",
    "eventType": "visa",
    "harmOrPotentialHarm": true,
    "individualsInvolved": null,
    "typeOfEvent": null,
    "effectOnIndividual": null,
    "witnessOneName": null,
    "witnessOnePhone": null,
    "witnessTwoName": null,
    "witnessTwoPhone": null,
    "witnessThreeName": null,
    "witnessThreePhone": null,
    "departmentsInvolved": null,
    "incidentDescription": "LOESTRIN Fe 1.5/30",
    "preventativeAction": "Pipefitter",
    "patientInfo": null
  }],
  "pageable": {
    "sort": {
      "empty": true,
      "sorted": false,
      "unsorted": true
    },
    "offset": 0,
    "pageNumber": 0,
    "pageSize": 1,
    "paged": true,
    "unpaged": false
  },
  "totalPages": 50,
  "totalElements": 50,
  "last": false,
  "size": 1,
  "number": 0,
  "sort": {
    "empty": true,
    "sorted": false,
    "unsorted": true
  },
  "numberOfElements": 1,
  "first": true,
  "empty": false
}